{
    "unreadcount_id": {
        "message": "You have $UNREAD$ unread articles",
        "description": "",
        "placeholders": {
            "unread": {
                "content": "$1",
                "example": 1
            }
        }
    },
    "zerocount_id": {
        "message": "no",
        "description": ""
    },
    "error_id": {
        "message": "Error: $ERROR$",
        "description": "",
        "placeholders": {
            "error": {
                "content": "$1",
                "example": "User not found"
            }
        }
    },
    "updateerror_id": {
        "message": "Error $ERROR$ while updating",
        "description": "",
        "placeholders": {
            "error": {
                "content": "$1",
                "example": 404
            }
        }
    },
    "urlerror_id": {
        "message": "The configured URL is invalid.",
        "description": ""
    },
    "BaseURL_title": {
        "message": "URL of your Tiny Tiny RSS installation:",
        "description": ""
    },
    "Login_title": {
        "message": "Login",
        "description": ""
    },
    "SingleUser_title": {
        "message": "Single-user mode:",
        "description": ""
    },
    "UpdateInterval_title": {
        "message": "Update interval (in minutes):",
        "description": ""
    },
    "BackgroundColor_title": {
        "message": "Badge color for unread count",
        "description": ""
    },
    "SaveButton_title": {
        "message": "Save options",
        "description": ""
    },
    "UpdateNotification_message":
    {
        "message": "The add-on has been updated to version $VERSION$. Click for more details.",
        "description": "",
        "placeholders": {
            "version": {
                "content": "$1",
                "example": 0.0
            }
        }
    },
    "InstallNotification_message":
    {
        "message": "The add-on has been installed and should be configured. Click to open the options dialog.",
        "description": ""
    }
}
